Using Digital Footprint Data to Measure and Monitor Human Mobility - Spatial patterns
…
shp_adm

Simple feature collection with 345 features and 10 fields (with 1 geometry empty)
Geometry type: GEOMETRY
Dimension:     XY
Bounding box:  xmin: -109.4488 ymin: -55.97871 xmax: -66.41821 ymax: -17.49952
Geodetic CRS:  WGS 84
# A tibble: 345 × 11
   GID_3       GID_0 COUNTRY GID_1   NAME_1 GID_2 NAME_2 NAME_3 TYPE_3 ENGTYPE_3
   <chr>       <chr> <chr>   <chr>   <chr>  <chr> <chr>  <chr>  <chr>  <chr>    
 1 CHL.2.1.1_1 CHL   Chile   CHL.2_1 Antof… CHL.… Antof… Antof… Comuna Municipa…
 2 CHL.2.1.2_1 CHL   Chile   CHL.2_1 Antof… CHL.… Antof… Mejil… Comuna Municipa…
 3 CHL.2.1.3_1 CHL   Chile   CHL.2_1 Antof… CHL.… Antof… Sierr… Comuna Municipa…
 4 CHL.2.1.4_1 CHL   Chile   CHL.2_1 Antof… CHL.… Antof… Taltal Comuna Municipa…
 5 CHL.2.2.1_1 CHL   Chile   CHL.2_1 Antof… CHL.… El Loa Calama Comuna Municipa…
 6 CHL.2.2.2_1 CHL   Chile   CHL.2_1 Antof… CHL.… El Loa Ollag… Comuna Municipa…
 7 CHL.2.2.3_1 CHL   Chile   CHL.2_1 Antof… CHL.… El Loa San P… Comuna Municipa…
 8 CHL.2.3.1_1 CHL   Chile   CHL.2_1 Antof… CHL.… Tocop… María… Comuna Municipa…
 9 CHL.2.3.2_1 CHL   Chile   CHL.2_1 Antof… CHL.… Tocop… Tocop… Comuna Municipa…
10 CHL.3.1.1_1 CHL   Chile   CHL.3_1 Arauc… CHL.… Cautín Carah… Comuna Municipa…
# ℹ 335 more rows
# ℹ 1 more variable: geometry <POLYGON [°]>
…
shp_adm

Simple feature collection with 345 features and 2 fields (with 1 geometry empty)
Geometry type: GEOMETRY
Dimension:     XY
Bounding box:  xmin: -109.4488 ymin: -55.97871 xmax: -66.41821 ymax: -17.49952
Geodetic CRS:  WGS 84
# A tibble: 345 × 3
   NAME_3               ENGTYPE_3                                       geometry
 * <chr>                <chr>                                      <POLYGON [°]>
 1 Antofagasta          Municipality ((-70.60031 -23.4473, -70.60352 -23.46711,…
 2 Mejillones           Municipality ((-70.02407 -23.06381, -69.98062 -22.95599…
 3 Sierra Gorda         Municipality ((-68.69855 -23.92313, -68.69079 -23.85126…
 4 Taltal               Municipality ((-70.4239 -24.61988, -70.56963 -24.55613,…
 5 Calama               Municipality ((-68.01055 -22.03307, -68.19283 -21.90586…
 6 Ollagüe              Municipality ((-68.05991 -21.77872, -68.18056 -21.60407…
 7 San Pedro de Atacama Municipality ((-67.18149 -22.8142, -67.61008 -22.90392,…
 8 María Elena          Municipality ((-69.96878 -22.86768, -69.53614 -22.88021…
 9 Tocopilla            Municipality ((-70.26542 -22.62504, -69.96545 -22.42489…
10 Carahue              Municipality ((-73.06431 -38.47689, -73.10936 -38.44577…
# ℹ 335 more rows
…
[1] 51

Join point-in-polygons

Overlay start points from the mobility dataset over the polygons. Extract start points from the linestring geometry and use that to create the shapefile.

mob_indicators <- st_join(shp_adm, netflow_df)
mob_indicators

Simple feature collection with 345 features and 6 fields (with 1 geometry empty)
Geometry type: GEOMETRY
Dimension:     XY
Bounding box:  xmin: -109.4488 ymin: -55.97871 xmax: -66.41821 ymax: -17.49952
Geodetic CRS:  WGS 84
# A tibble: 345 × 7
   NAME_3           ENGTYPE_3                  geometry polygon_name mean_inflow
 * <chr>            <chr>                 <POLYGON [°]> <chr>              <dbl>
 1 Antofagasta      Municipa… ((-70.60031 -23.4473, -7… Antofagasta         63.3
 2 Mejillones       Municipa… ((-70.02407 -23.06381, -… <NA>                NA  
 3 Sierra Gorda     Municipa… ((-68.69855 -23.92313, -… <NA>                NA  
 4 Taltal           Municipa… ((-70.4239 -24.61988, -7… <NA>                NA  
 5 Calama           Municipa… ((-68.01055 -22.03307, -… <NA>                NA  
 6 Ollagüe          Municipa… ((-68.05991 -21.77872, -… <NA>                NA  
 7 San Pedro de At… Municipa… ((-67.18149 -22.8142, -6… El Loa              93.2
 8 María Elena      Municipa… ((-69.96878 -22.86768, -… Tocopilla           36.6
 9 Tocopilla        Municipa… ((-70.26542 -22.62504, -… <NA>                NA  
10 Carahue          Municipa… ((-73.06431 -38.47689, -… <NA>                NA  
# ℹ 335 more rows
# ℹ 2 more variables: mean_outflow <dbl>, mean_netflow <dbl>
…
